{"contributors": null, "truncated": false, "text": "Kann man mir Sid Meier's Civilization 5 empfehlen ?", "is_quote_status": false, "in_reply_to_status_id": null, "id": 717006486933741568, "favorite_count": 0, "entities": {"symbols": [], "user_mentions": [], "hashtags": [], "urls": []}, "retweeted": false, "coordinates": null, "source": "<a href=\"http://twitter.com\" rel=\"nofollow\">Twitter Web Client</a>", "in_reply_to_screen_name": null, "in_reply_to_user_id": null, "retweet_count": 0, "id_str": "717006486933741568", "favorited": false, "user": {"follow_request_sent": false, "has_extended_profile": false, "profile_use_background_image": true, "default_profile_image": false, "id": 2823288387, "profile_background_image_url_https": "https://abs.twimg.com/images/themes/theme1/bg.png", "verified": false, "profile_text_color": "333333", "profile_image_url_https": "https://pbs.twimg.com/profile_images/605338601161924609/DCq6HJBi_normal.jpg", "profile_sidebar_fill_color": "DDEEF6", "entities": {"description": {"urls": []}}, "followers_count": 10, "profile_sidebar_border_color": "C0DEED", "id_str": "2823288387", "profile_background_color": "C0DEED", "listed_count": 0, "is_translation_enabled": false, "utc_offset": null, "statuses_count": 668, "description": "", "friends_count": 16, "location": "", "profile_link_color": "0084B4", "profile_image_url": "http://pbs.twimg.com/profile_images/605338601161924609/DCq6HJBi_normal.jpg", "following": false, "geo_enabled": false, "profile_background_image_url": "http://abs.twimg.com/images/themes/theme1/bg.png", "screen_name": "M4xSchubert", "lang": "de", "profile_background_tile": false, "favourites_count": 246, "name": "M4ximu2", "notifications": false, "url": null, "created_at": "Sat Oct 11 18:36:00 +0000 2014", "contributors_enabled": false, "time_zone": null, "protected": false, "default_profile": true, "is_translator": false}, "geo": null, "in_reply_to_user_id_str": null, "lang": "de", "created_at": "Mon Apr 04 15:10:42 +0000 2016", "in_reply_to_status_id_str": null, "place": null, "metadata": {"iso_language_code": "de", "result_type": "recent"}}
{"contributors": null, "truncated": false, "text": "I won 5 achievements in Sid Meier's Civilization V for 124 #TrueSteamAchievement pts - https://t.co/uC9XnTV8lN", "is_quote_status": false, "in_reply_to_status_id": null, "id": 716307550631825408, "favorite_count": 0, "entities": {"symbols": [], "user_mentions": [], "hashtags": [{"indices": [59, 80], "text": "TrueSteamAchievement"}], "urls": [{"url": "https://t.co/uC9XnTV8lN", "indices": [87, 110], "expanded_url": "http://tinyurl.com/z79c3m6", "display_url": "tinyurl.com/z79c3m6"}]}, "retweeted": false, "coordinates": null, "source": "<a href=\"https://truesteamachievements.com/\" rel=\"nofollow\">TrueSteamAchievements</a>", "in_reply_to_screen_name": null, "in_reply_to_user_id": null, "retweet_count": 0, "id_str": "716307550631825408", "favorited": false, "user": {"follow_request_sent": false, "has_extended_profile": true, "profile_use_background_image": true, "default_profile_image": false, "id": 488658382, "profile_background_image_url_https": "https://abs.twimg.com/images/themes/theme1/bg.png", "verified": false, "profile_text_color": "333333", "profile_image_url_https": "https://pbs.twimg.com/profile_images/3462122734/66edbdca5b34c2769bdead5805645c25_normal.jpeg", "profile_sidebar_fill_color": "DDEEF6", "entities": {"url": {"urls": [{"url": "https://t.co/qRfiRymFZB", "indices": [0, 23], "expanded_url": "http://youtube.com/bebettergamerwrestling", "display_url": "youtube.com/bebettergamerw\u2026"}]}, "description": {"urls": []}}, "followers_count": 59, "profile_sidebar_border_color": "C0DEED", "id_str": "488658382", "profile_background_color": "C0DEED", "listed_count": 5, "is_translation_enabled": false, "utc_offset": -14400, "statuses_count": 2409, "description": "I make Let's Plays of #WWFNoMercy, #WCWnWoRevenge, #VPW2 and #WWE2K16. Watch all the wrestling!", "friends_count": 278, "location": "Buffalo, NY", "profile_link_color": "0084B4", "profile_image_url": "http://pbs.twimg.com/profile_images/3462122734/66edbdca5b34c2769bdead5805645c25_normal.jpeg", "following": false, "geo_enabled": false, "profile_banner_url": "https://pbs.twimg.com/profile_banners/488658382/1446727727", "profile_background_image_url": "http://abs.twimg.com/images/themes/theme1/bg.png", "screen_name": "BeBetterGamer", "lang": "en", "profile_background_tile": false, "favourites_count": 76, "name": "Jose A. Rivera", "notifications": false, "url": "https://t.co/qRfiRymFZB", "created_at": "Fri Feb 10 18:01:32 +0000 2012", "contributors_enabled": false, "time_zone": "Eastern Time (US & Canada)", "protected": false, "default_profile": true, "is_translator": false}, "geo": null, "in_reply_to_user_id_str": null, "possibly_sensitive": false, "lang": "en", "created_at": "Sat Apr 02 16:53:23 +0000 2016", "in_reply_to_status_id_str": null, "place": null, "metadata": {"iso_language_code": "en", "result_type": "recent"}}
{"contributors": null, "truncated": false, "text": "Sid Meier's Civilization V 3$ for limited time https://t.co/Ha0Jbh4rcB #civilization5 #civ5 #steam", "is_quote_status": false, "in_reply_to_status_id": null, "id": 715952543843622912, "favorite_count": 0, "entities": {"symbols": [], "user_mentions": [], "hashtags": [{"indices": [71, 85], "text": "civilization5"}, {"indices": [86, 91], "text": "civ5"}, {"indices": [92, 98], "text": "steam"}], "urls": [{"url": "https://t.co/Ha0Jbh4rcB", "indices": [47, 70], "expanded_url": "http://bit.ly/1uWCaRU", "display_url": "bit.ly/1uWCaRU"}]}, "retweeted": false, "coordinates": null, "source": "<a href=\"http://pytmaniac.blogspot.com\" rel=\"nofollow\">BTwitter2</a>", "in_reply_to_screen_name": null, "in_reply_to_user_id": null, "retweet_count": 1, "id_str": "715952543843622912", "favorited": false, "user": {"follow_request_sent": false, "has_extended_profile": false, "profile_use_background_image": false, "default_profile_image": false, "id": 2900350162, "profile_background_image_url_https": "https://abs.twimg.com/images/themes/theme1/bg.png", "verified": false, "profile_text_color": "000000", "profile_image_url_https": "https://pbs.twimg.com/profile_images/567730409929072641/TeiIzsv1_normal.jpeg", "profile_sidebar_fill_color": "000000", "entities": {"url": {"urls": [{"url": "http://t.co/tcB8ZRXQuS", "indices": [0, 22], "expanded_url": "http://bit.ly/12jH0RY", "display_url": "bit.ly/12jH0RY"}]}, "description": {"urls": []}}, "followers_count": 10047, "profile_sidebar_border_color": "000000", "id_str": "2900350162", "profile_background_color": "000000", "listed_count": 146, "is_translation_enabled": false, "utc_offset": null, "statuses_count": 12071, "description": "Best offers every day: steam, xbox live, psn, apple, amazon and more!", "friends_count": 10679, "location": "WWW", "profile_link_color": "4A913C", "profile_image_url": "http://pbs.twimg.com/profile_images/567730409929072641/TeiIzsv1_normal.jpeg", "following": false, "geo_enabled": false, "profile_banner_url": "https://pbs.twimg.com/profile_banners/2900350162/1443852696", "profile_background_image_url": "http://abs.twimg.com/images/themes/theme1/bg.png", "screen_name": "XGameMarket", "lang": "en", "profile_background_tile": false, "favourites_count": 12, "name": "GameMarket", "notifications": false, "url": "http://t.co/tcB8ZRXQuS", "created_at": "Mon Dec 01 08:29:39 +0000 2014", "contributors_enabled": false, "time_zone": null, "protected": false, "default_profile": false, "is_translator": false}, "geo": null, "in_reply_to_user_id_str": null, "possibly_sensitive": false, "lang": "en", "created_at": "Fri Apr 01 17:22:42 +0000 2016", "in_reply_to_status_id_str": null, "place": null, "metadata": {"iso_language_code": "en", "result_type": "recent"}}
{"contributors": null, "truncated": false, "text": "https://t.co/LOLfRIa6Rk sid meier's civilization 5 \u043c\u043e\u0434\u044b \u0441\u043a\u0430\u0447\u0430\u0442\u044c", "is_quote_status": false, "in_reply_to_status_id": null, "id": 715935315983261697, "favorite_count": 0, "entities": {"symbols": [], "user_mentions": [], "hashtags": [], "urls": [{"url": "https://t.co/LOLfRIa6Rk", "indices": [0, 23], "expanded_url": "http://bit.ly/1M6zzEa", "display_url": "bit.ly/1M6zzEa"}]}, "retweeted": false, "coordinates": null, "source": "<a href=\"https://mobile.twitter.com\" rel=\"nofollow\">Mobile Web (M2)</a>", "in_reply_to_screen_name": null, "in_reply_to_user_id": null, "retweet_count": 0, "id_str": "715935315983261697", "favorited": false, "user": {"follow_request_sent": false, "has_extended_profile": false, "profile_use_background_image": true, "default_profile_image": false, "id": 3091536717, "profile_background_image_url_https": "https://abs.twimg.com/images/themes/theme4/bg.gif", "verified": false, "profile_text_color": "3C3940", "profile_image_url_https": "https://pbs.twimg.com/profile_images/578989348646879232/PZ3I7WjZ_normal.png", "profile_sidebar_fill_color": "95E8EC", "entities": {"description": {"urls": []}}, "followers_count": 1321, "profile_sidebar_border_color": "5ED4DC", "id_str": "3091536717", "profile_background_color": "0099B9", "listed_count": 4, "is_translation_enabled": false, "utc_offset": null, "statuses_count": 9273, "description": "Alcohol enthusiast", "friends_count": 1509, "location": "", "profile_link_color": "0099B9", "profile_image_url": "http://pbs.twimg.com/profile_images/578989348646879232/PZ3I7WjZ_normal.png", "following": false, "geo_enabled": false, "profile_background_image_url": "http://abs.twimg.com/images/themes/theme4/bg.gif", "screen_name": "gurofajaxavy", "lang": "en", "profile_background_tile": false, "favourites_count": 3, "name": "Balagopala Karlmann", "notifications": false, "url": null, "created_at": "Sat Mar 14 07:05:38 +0000 2015", "contributors_enabled": false, "time_zone": null, "protected": false, "default_profile": false, "is_translator": false}, "geo": null, "in_reply_to_user_id_str": null, "possibly_sensitive": false, "lang": "und", "created_at": "Fri Apr 01 16:14:15 +0000 2016", "in_reply_to_status_id_str": null, "place": null, "metadata": {"iso_language_code": "und", "result_type": "recent"}}
{"contributors": null, "truncated": false, "text": "\u041c\u043d\u0435 \u043f\u043e\u043d\u0440\u0430\u0432\u0438\u043b\u043e\u0441\u044c \u0432\u0438\u0434\u0435\u043e \"Sid Meier's Civilization 5 (\u0420\u043e\u0441\u0441\u0438\u044f) \u0421\u0435\u0440\u0438\u044f 7\" (https://t.co/Rt4aCUqLk8) \u043d\u0430", "is_quote_status": false, "in_reply_to_status_id": null, "id": 715322347230728193, "favorite_count": 0, "entities": {"symbols": [], "user_mentions": [], "hashtags": [], "urls": [{"url": "https://t.co/Rt4aCUqLk8", "indices": [69, 92], "expanded_url": "http://youtu.be/0MOXyOHQhWg?a", "display_url": "youtu.be/0MOXyOHQhWg?a"}]}, "retweeted": false, "coordinates": null, "source": "<a href=\"http://www.google.com/\" rel=\"nofollow\">Google</a>", "in_reply_to_screen_name": null, "in_reply_to_user_id": null, "retweet_count": 0, "id_str": "715322347230728193", "favorited": false, "user": {"follow_request_sent": false, "has_extended_profile": true, "profile_use_background_image": false, "default_profile_image": false, "id": 3362662863, "profile_background_image_url_https": "https://abs.twimg.com/images/themes/theme1/bg.png", "verified": false, "profile_text_color": "000000", "profile_image_url_https": "https://pbs.twimg.com/profile_images/618102273655177218/bJEZMKEr_normal.jpg", "profile_sidebar_fill_color": "000000", "entities": {"description": {"urls": []}}, "followers_count": 33, "profile_sidebar_border_color": "000000", "id_str": "3362662863", "profile_background_color": "000000", "listed_count": 1, "is_translation_enabled": false, "utc_offset": null, "statuses_count": 264, "description": "", "friends_count": 117, "location": "", "profile_link_color": "ABB8C2", "profile_image_url": "http://pbs.twimg.com/profile_images/618102273655177218/bJEZMKEr_normal.jpg", "following": false, "geo_enabled": false, "profile_banner_url": "https://pbs.twimg.com/profile_banners/3362662863/1453720632", "profile_background_image_url": "http://abs.twimg.com/images/themes/theme1/bg.png", "screen_name": "Wolfgram96", "lang": "ru", "profile_background_tile": false, "favourites_count": 39, "name": "\u0421\u0430\u0444\u0440\u043e\u043d\u043e\u0432 \u041d\u0438\u043a\u043e\u043b\u0430\u0439", "notifications": false, "url": null, "created_at": "Mon Jul 06 16:58:50 +0000 2015", "contributors_enabled": false, "time_zone": null, "protected": false, "default_profile": false, "is_translator": false}, "geo": null, "in_reply_to_user_id_str": null, "possibly_sensitive": false, "lang": "und", "created_at": "Wed Mar 30 23:38:32 +0000 2016", "in_reply_to_status_id_str": null, "place": null, "metadata": {"iso_language_code": "und", "result_type": "recent"}}
{"contributors": null, "truncated": false, "text": "@Fader209 Civ V: Complete Edition - \u00a38 https://t.co/NZFAiZF9T2", "is_quote_status": false, "in_reply_to_status_id": null, "id": 714471213318463488, "favorite_count": 1, "entities": {"symbols": [], "user_mentions": [{"id": 285212916, "indices": [0, 9], "id_str": "285212916", "screen_name": "Fader209", "name": "Andy Plumbly"}], "hashtags": [], "urls": [{"url": "https://t.co/NZFAiZF9T2", "indices": [39, 62], "expanded_url": "http://www.cdkeys.com/pc/games/sid-meier-s-civilization-v-5-the-complete-edition-pc-cd-key-steam", "display_url": "cdkeys.com/pc/games/sid-m\u2026"}]}, "retweeted": false, "coordinates": null, "source": "<a href=\"http://twitter.com\" rel=\"nofollow\">Twitter Web Client</a>", "in_reply_to_screen_name": "Fader209", "in_reply_to_user_id": 285212916, "retweet_count": 0, "id_str": "714471213318463488", "favorited": false, "user": {"follow_request_sent": false, "has_extended_profile": false, "profile_use_background_image": true, "default_profile_image": false, "id": 522337141, "profile_background_image_url_https": "https://pbs.twimg.com/profile_background_images/378800000106381305/a14994153b9f62c548b014260873ebfa.jpeg", "verified": false, "profile_text_color": "333333", "profile_image_url_https": "https://pbs.twimg.com/profile_images/661274082877579265/pa0mbh_M_normal.jpg", "profile_sidebar_fill_color": "DDEEF6", "entities": {"description": {"urls": []}}, "followers_count": 105, "profile_sidebar_border_color": "000000", "id_str": "522337141", "profile_background_color": "1F4241", "listed_count": 5, "is_translation_enabled": false, "utc_offset": 3600, "statuses_count": 5097, "description": "In a brand-new fashion in a dancehall style wee rule", "friends_count": 669, "location": "", "profile_link_color": "C8412D", "profile_image_url": "http://pbs.twimg.com/profile_images/661274082877579265/pa0mbh_M_normal.jpg", "following": false, "geo_enabled": false, "profile_banner_url": "https://pbs.twimg.com/profile_banners/522337141/1446495041", "profile_background_image_url": "http://pbs.twimg.com/profile_background_images/378800000106381305/a14994153b9f62c548b014260873ebfa.jpeg", "screen_name": "Ataribaby", "lang": "en", "profile_background_tile": false, "favourites_count": 1166, "name": "Ataribaby", "notifications": false, "url": null, "created_at": "Mon Mar 12 15:23:35 +0000 2012", "contributors_enabled": false, "time_zone": "Casablanca", "protected": false, "default_profile": false, "is_translator": false}, "geo": null, "in_reply_to_user_id_str": "285212916", "possibly_sensitive": false, "lang": "en", "created_at": "Mon Mar 28 15:16:26 +0000 2016", "in_reply_to_status_id_str": null, "place": null, "metadata": {"iso_language_code": "en", "result_type": "recent"}}
{"contributors": null, "truncated": false, "text": "Sid Meier's Civilization V 3$ for limited time https://t.co/Ha0Jbh4rcB #civilization5 #civ5 #steam", "is_quote_status": false, "in_reply_to_status_id": null, "id": 714393599635558400, "favorite_count": 0, "entities": {"symbols": [], "user_mentions": [], "hashtags": [{"indices": [71, 85], "text": "civilization5"}, {"indices": [86, 91], "text": "civ5"}, {"indices": [92, 98], "text": "steam"}], "urls": [{"url": "https://t.co/Ha0Jbh4rcB", "indices": [47, 70], "expanded_url": "http://bit.ly/1uWCaRU", "display_url": "bit.ly/1uWCaRU"}]}, "retweeted": false, "coordinates": null, "source": "<a href=\"http://pytmaniac.blogspot.com\" rel=\"nofollow\">BTwitter2</a>", "in_reply_to_screen_name": null, "in_reply_to_user_id": null, "retweet_count": 0, "id_str": "714393599635558400", "favorited": false, "user": {"follow_request_sent": false, "has_extended_profile": false, "profile_use_background_image": false, "default_profile_image": false, "id": 2900350162, "profile_background_image_url_https": "https://abs.twimg.com/images/themes/theme1/bg.png", "verified": false, "profile_text_color": "000000", "profile_image_url_https": "https://pbs.twimg.com/profile_images/567730409929072641/TeiIzsv1_normal.jpeg", "profile_sidebar_fill_color": "000000", "entities": {"url": {"urls": [{"url": "http://t.co/tcB8ZRXQuS", "indices": [0, 22], "expanded_url": "http://bit.ly/12jH0RY", "display_url": "bit.ly/12jH0RY"}]}, "description": {"urls": []}}, "followers_count": 10047, "profile_sidebar_border_color": "000000", "id_str": "2900350162", "profile_background_color": "000000", "listed_count": 146, "is_translation_enabled": false, "utc_offset": null, "statuses_count": 12071, "description": "Best offers every day: steam, xbox live, psn, apple, amazon and more!", "friends_count": 10679, "location": "WWW", "profile_link_color": "4A913C", "profile_image_url": "http://pbs.twimg.com/profile_images/567730409929072641/TeiIzsv1_normal.jpeg", "following": false, "geo_enabled": false, "profile_banner_url": "https://pbs.twimg.com/profile_banners/2900350162/1443852696", "profile_background_image_url": "http://abs.twimg.com/images/themes/theme1/bg.png", "screen_name": "XGameMarket", "lang": "en", "profile_background_tile": false, "favourites_count": 12, "name": "GameMarket", "notifications": false, "url": "http://t.co/tcB8ZRXQuS", "created_at": "Mon Dec 01 08:29:39 +0000 2014", "contributors_enabled": false, "time_zone": null, "protected": false, "default_profile": false, "is_translator": false}, "geo": null, "in_reply_to_user_id_str": null, "possibly_sensitive": false, "lang": "en", "created_at": "Mon Mar 28 10:08:01 +0000 2016", "in_reply_to_status_id_str": null, "place": null, "metadata": {"iso_language_code": "en", "result_type": "recent"}}
